Untitled
…
## Warning in max(year, na.rm = TRUE): no non-missing arguments to max; returning -
## Inf

## Warning in max(year, na.rm = TRUE): no non-missing arguments to max; returning -
## Inf

## Warning in max(year, na.rm = TRUE): no non-missing arguments to max; returning -
## Inf

## Warning in max(year, na.rm = TRUE): no non-missing arguments to max; returning -
## Inf

## `summarise()` ungrouping output (override with `.groups` argument)

## # A tibble: 3,127 x 7
##    artist        n_pieces avg_year first_year last_year median_area median_ratio
##    <chr>            <int>    <dbl>      <dbl>     <dbl>       <dbl>        <dbl>
##  1 Moore, Henry…      619    1971.       1925      1984      0.0649        0.914
##  2 Daniell, Wil…      612    1814.       1814      1825      0.0553        0.712
##  3 Beuys, Joseph      556    1978.       1945      2009      0.313         1.41 
##  4 British (?) …      387    1806.       1637      1833      0.0168        0.731
##  5 Paolozzi, Si…      385    1968.       1946      1993      0.0969        1.43 
##  6 Flaxman, John      286    1806.       1770      1810      0.0258        0.716
##  7 Phillips, Es…      274    1976.       1963      1983      0.0589        1.41 
##  8 Warhol, Andy       258    1973.       1948      1990      0.421         1.27 
##  9 Constable, J…      248    1832.       1800      1855      0.0308        0.698
## 10 Cozens, Alex…      237    1776.       1746      1785      0.0362        0.725
## # … with 3,117 more rows
…
Biuld a Model

tate_df <- artwork %>%
  filter(year > 1750) %>%
  select(year, medium) %>%
  na.omit() %>%
  arrange(year)

¿Cuáles son las palabras más comunes para describir the media?

tate_df %>%
  unnest_tokens(word, medium) %>%
  count(word, sort = TRUE)

## # A tibble: 1,456 x 2
##    word            n
##    <chr>       <int>
##  1 on          22603
##  2 paper       17740
##  3 and          5557
##  4 paint        4660
##  5 oil          4021
##  6 screenprint  3422
##  7 canvas       3399
##  8 lithograph   3014
##  9 print        2752
## 10 etching      2480
## # … with 1,446 more rows
…
