…
animal_com_sum
```

    ## # A tibble: 960 x 5
    ## # Groups:   animal_type, Complaint Type, suburb, decade [960]
    ##    animal_type `Complaint Type`  suburb      decade total1
    ##    <chr>       <fct>             <chr>        <dbl>  <int>
    ##  1 dog         Wandering         unallocated   2010   3452
    ##  2 dog         Private Impound   aitkenvale    2010   1014
    ##  3 dog         Noise             kirwan        2010   1010
    ##  4 dog         Private Impound   douglas       2010    927
    ##  5 dog         Private Impound   kirwan        2010    773
    ##  6 dog         Private Impound   kelso         2010    671
    ##  7 dog         Noise             kelso         2010    609
    ##  8 dog         Enclosure         kelso         2010    578
    ##  9 dog         Private Impound   deeragun      2010    554
    ## 10 dog         Aggressive Animal kelso         2010    468
    ## # … with 950 more rows
…
    ## Warning: Problem with `mutate()` input `years`.
    ## x NAs introduced by coercion
    ## ℹ Input `years` is `as.numeric(years)`.

    ## Warning in mask$eval_all_mutate(dots[[i]]): NAs introduced by coercion

    ## `summarise()` regrouping output by 'decade', 'animal_type', 'category' (override with `.groups` argument)

``` r
brisbane_summarized
```

    ## # A tibble: 2,763 x 5
    ##    decade animal_type category           suburb       total2
    ##     <dbl> <chr>       <chr>              <chr>         <int>
    ##  1   2010 attack      Attack On A Person acacia ridge     36
    ##  2   2010 attack      Attack On A Person albion            1
    ##  3   2010 attack      Attack On A Person alderley         12
    ##  4   2010 attack      Attack On A Person algester         13
    ##  5   2010 attack      Attack On A Person annerley         11
    ##  6   2010 attack      Attack On A Person anstead           7
    ##  7   2010 attack      Attack On A Person ascot             5
    ##  8   2010 attack      Attack On A Person ashgrove         22
    ##  9   2010 attack      Attack On A Person aspley           30
    ## 10   2010 attack      Attack On A Person auchenflower      5
    ## # … with 2,753 more rows
…
