…
## P-value Relation per category

``` r
slopes<-by_year_state %>%
  filter(category %in% top_categories$category)%>%
  group_by(state,category) %>%
  summarize(model = list(glm(cbind(n, year_total - n) ~ year, family = "binomial"))) %>%
  mutate(tidied = map(model, tidy, conf.int = TRUE))%>%
  unnest(tidied) %>%
  filter(term == "year") %>%
  mutate(p.value = p.adjust(p.value))
slopes
```

    ## # A tibble: 41 x 10
    ## # Groups:   state [10]
    ##    state category model term  estimate std.error statistic p.value conf.low
    ##    <chr> <chr>    <lis> <chr>    <dbl>     <dbl>     <dbl>   <dbl>    <dbl>
    ##  1 Cali… America… <glm> year   -0.0264    0.0390    -0.677       1   -0.104
    ##  2 Cali… Bock     <glm> year   -0.0367    0.177     -0.207       1   -0.441
    ##  3 Cali… Classic… <glm> year   -0.0338    0.0345    -0.982       1   -0.102
    ##  4 Cali… German-… <glm> year   -0.0521    0.0706    -0.738       1   -0.196
    ##  5 Cali… Irish-S… <glm> year   -0.0327    0.0701    -0.466       1   -0.169
    ##  6 Colo… America… <glm> year   -0.0324    0.0496    -0.654       1   -0.129
    ##  7 Colo… Bock     <glm> year   -0.0506    0.0415    -1.22        1   -0.133
    ##  8 Colo… Classic… <glm> year   -0.0368    0.0917    -0.402       1   -0.210
    ##  9 Colo… German-… <glm> year   -0.0362    0.0503    -0.720       1   -0.140
    ## 10 Colo… Irish-S… <glm> year   -0.0203    0.0490    -0.414       1   -0.115
    ## # … with 31 more rows, and 1 more variable: conf.high <dbl>
…
