…
``` r
billboard%>%
    mutate(performer=str_remove(performer,'(?<=[\\s])\\s*|^\\s+|\\s+$'),
           performer=str_remove(performer,'[[:punct:]]'))%>%
  group_by(performer,week_position)%>%
  count(sort = TRUE)
```

    ## # A tibble: 187,084 × 3
    ## # Groups:   performer, week_position [187,084]
    ##    performer       week_position     n
    ##    <chr>                   <dbl> <int>
    ##  1 Mariah Carey                1    65
    ##  2 The Beatles                 1    54
    ##  3 Madonna                     2    41
    ##  4 Mariah Carey                2    39
    ##  5 Boyz II Men                 1    34
    ##  6 Madonna                     1    32
    ##  7 The Beatles                 2    32
    ##  8 Drake                       1    31
    ##  9 Whitney Houston             1    31
    ## 10 Michael Jackson             1    30
    ## # … with 187,074 more rows
…
``` r
billboard<-billboard%>%
    mutate(Decade= (year(week_id) %/%10)*10)
```

## A Little EDA

``` r
billboard%>%
  filter(week_position==1)%>%
  group_by(performer,song)%>%
  count(sort=T)
```

    ## # A tibble: 1,124 × 3
    ## # Groups:   performer, song [1,124]
    ##    performer                                        song                       n
    ##    <chr>                                            <chr>                  <int>
    ##  1 Lil Nas X Featuring Billy Ray Cyrus              Old Town Road             19
    ##  2 Luis Fonsi  Daddy Yankee Featuring Justin Bieber Despacito                 16
    ##  3 Mariah Carey  Boyz II Men                        One Sweet Day             16
    ##  4 Boyz II Men                                      I'll Make Love To You     14
    ##  5 Elton John                                       Candle In The Wind 19…    14
    ##  6 Los Del Rio                                      Macarena (Bayside Boy…    14
    ##  7 Mariah Carey                                     We Belong Together        14
    ##  8 Mark Ronson Featuring Bruno Mars                 Uptown Funk!              14
    ##  9 The Black Eyed Peas                              I Gotta Feeling           14
    ## 10 Whitney Houston                                  I Will Always Love You    14
    ## # … with 1,114 more rows
…
