…
    ## # A tibble: 2 x 2
    ##   species     n
    ##   <chr>   <int>
    ## 1 Arabica  1311
    ## 2 Robusta    28

``` r
coffee_ratings%>%
  count(country_of_origin,sort = TRUE)
```

    ## # A tibble: 37 x 2
    ##    country_of_origin                n
    ##    <chr>                        <int>
    ##  1 Mexico                         236
    ##  2 Colombia                       183
    ##  3 Guatemala                      181
    ##  4 Brazil                         132
    ##  5 Taiwan                          75
    ##  6 United States (Hawaii)          73
    ##  7 Honduras                        53
    ##  8 Costa Rica                      51
    ##  9 Ethiopia                        44
    ## 10 Tanzania, United Republic Of    40
    ## # … with 27 more rows
…
