…
slopes <- tidy_lm %>%
  mutate(coefs = map(model, tidy)) %>%
  unnest(coefs) %>%
  filter(term == "year") %>%
  mutate(p.value = p.adjust(p.value))%>%
  ungroup()
```

``` r
slopes%>%
  arrange(desc(estimate))
```

    ## # A tibble: 270 x 9
    ##    entity    crop   yields     model term  estimate std.error statistic  p.value
    ##    <chr>     <chr>  <list>     <lis> <chr>    <dbl>     <dbl>     <dbl>    <dbl>
    ##  1 South Ko… banan… <tibble [… <lm>  year     6.56    1.53         4.28 3.84e- 1
    ##  2 Indonesia banan… <tibble [… <lm>  year     1.27    0.0797      15.9  3.50e-20
    ##  3 South Af… banan… <tibble [… <lm>  year     0.947   0.0698      13.6  3.91e-17
    ##  4 Turkey    banan… <tibble [… <lm>  year     0.839   0.0359      23.4  3.28e-28
    ##  5 Egypt     banan… <tibble [… <lm>  year     0.583   0.0308      18.9  1.10e-23
    ##  6 South Af… potat… <tibble [… <lm>  year     0.566   0.0204      27.8  4.78e-32
    ##  7 Iran      banan… <tibble [… <lm>  year     0.561   0.0664       8.45 3.21e- 8
    ##  8 France    potat… <tibble [… <lm>  year     0.522   0.0233      22.5  2.55e-27
    ##  9 Germany   potat… <tibble [… <lm>  year     0.504   0.0309      16.3  1.13e-20
    ## 10 United S… potat… <tibble [… <lm>  year     0.497   0.00795     62.6  4.34e-51
    ## # … with 260 more rows
…
