…
``` r
# Hogares
households<-households%>%
  clean_names()%>%
  mutate(county=str_trim(county))

## Cultivos
crops
```

    ## # A tibble: 48 x 11
    ##    SubCounty Farming    Tea Coffee Avocado Citrus  Mango Coconut Macadamia
    ##    <chr>       <dbl>  <dbl>  <dbl>   <dbl>  <dbl>  <dbl>   <dbl>     <dbl>
    ##  1 KENYA     6354211 476613 478936  966976 177445 796867   90952    195999
    ##  2 MOMBASA     12497     NA     NA      NA     NA     NA    1688        NA
    ##  3 KWALE      108074     NA     NA    1063  10053  30272   31954       881
    ##  4 KILIFI     161188     NA     NA      NA   6808  37519   47561        NA
    ##  5 TANA RIV…   35094     NA     NA      NA   1109   6561    2228        NA
    ##  6 LAMU        18678     NA     NA      NA   2742   7423    5017       189
    ##  7 TAITA/TA…   56920     NA     NA    7963   3284   7171    2504      3650
    ##  8 GARISSA     47645     NA     NA      NA     NA   1726      NA        NA
    ##  9 WAJIR       63433     NA     NA      NA     NA     NA      NA        NA
    ## 10 MANDERA     62639     NA     NA      NA     NA   2685      NA        NA
    ## # … with 38 more rows, and 2 more variables: `Cashew Nut` <dbl>, `Khat
    ## #   (Miraa)` <dbl>
…
