…
``` r
lm(lifeExp~.,data = gapminder)%>%
  tidy()%>%
  filter(p.value<=0.05)
```

    ## # A tibble: 141 x 5
    ##    term              estimate std.error statistic   p.value
    ##    <chr>                <dbl>     <dbl>     <dbl>     <dbl>
    ##  1 (Intercept)         -610.      11.4     -53.7  0.       
    ##  2 countryAlbania        31.4      1.44     21.8  3.80e- 92
    ##  3 countryAlgeria        21.8      1.44     15.1  3.04e- 48
    ##  4 countryArgentina      32.0      1.45     22.1  2.19e- 94
    ##  5 countryAustralia      38.7      1.48     26.1  9.36e-125
    ##  6 countryAustria        37.3      1.48     25.1  4.41e-117
    ##  7 countryBahrain        29.7      1.47     20.2  1.81e- 80
    ##  8 countryBangladesh     11.0      1.45      7.59 5.29e- 14
    ##  9 countryBelgium        37.7      1.48     25.5  7.98e-120
    ## 10 countryBenin          11.5      1.44      8.02 2.10e- 15
    ## # … with 131 more rows

``` r
gapminder%>%
  group_by(country,continent)%>%
  summarize(gam_model=list(gam(lifeExp~year+pop+gdpPercap)))%>%
  mutate(glanced = map(gam_model,glance))%>%
  unnest(glanced)
```

    ## `summarise()` regrouping output by 'country' (override with `.groups` argument)

    ## # A tibble: 142 x 9
    ## # Groups:   country [142]
    ##    country     continent gam_model    df logLik   AIC   BIC deviance df.residual
    ##    <fct>       <fct>     <list>    <dbl>  <dbl> <dbl> <dbl>    <dbl>       <dbl>
    ##  1 Afghanistan Asia      <gam>      3.   -29.3   66.5  68.4   92.0          9.00
    ##  2 Albania     Europe    <gam>      3.   -22.0   52.1  54.0   27.7          9.00
    ##  3 Algeria     Africa    <gam>      3.00 -21.0   50.0  52.0   23.3          9.  
    ##  4 Angola      Africa    <gam>      3.00 -25.0   58.0  59.9   45.3          9.  
    ##  5 Argentina   Americas  <gam>      3.    -1.47  10.9  12.9    0.898        9.00
    ##  6 Australia   Oceania   <gam>      3.    -8.72  25.4  27.4    3.00         9.00
    ##  7 Austria     Europe    <gam>      3.    -8.05  24.1  26.0    2.69         9.00
    ##  8 Bahrain     Asia      <gam>      3.   -27.3   62.6  64.6   66.6          9.00
    ##  9 Bangladesh  Asia      <gam>      3.00 -11.8   31.6  33.5    5.01         9.  
    ## 10 Belgium     Europe    <gam>      3.00  -5.97  19.9  21.9    1.90         9.  
    ## # … with 132 more rows

``` r
gapminder%>%
  group_by(country,continent)%>%
  summarize(lm_model=list(lm(lifeExp~year+pop+gdpPercap)))%>%
  mutate(tidied=map(lm_model,tidy))%>%
  unnest(tidied)%>%
  summarize(adjusted_pvalue = p.adjust(p.value, method = "fdr"))
```

    ## `summarise()` regrouping output by 'country' (override with `.groups` argument)
    ## `summarise()` regrouping output by 'country' (override with `.groups` argument)

    ## # A tibble: 568 x 2
    ## # Groups:   country [142]
    ##    country     adjusted_pvalue
    ##    <fct>                 <dbl>
    ##  1 Afghanistan      0.00000564
    ##  2 Afghanistan      0.00000564
    ##  3 Afghanistan      0.00651   
    ##  4 Afghanistan      0.264     
    ##  5 Albania          0.370     
    ##  6 Albania          0.370     
    ##  7 Albania          0.182     
    ##  8 Albania          0.182     
    ##  9 Algeria          0.0884    
    ## 10 Algeria          0.0884    
    ## # … with 558 more rows
…
``` r
life_prediction_residual <- test_prediction %>%
  arrange(.pred) %>%
  mutate(residual_pct = (lifeExp - .pred) / .pred) %>%
  select(.pred, residual_pct)


life_prediction_residual
```

    ## # A tibble: 508 x 2
    ##    .pred residual_pct
    ##    <dbl>        <dbl>
    ##  1  34.1       0.174 
    ##  2  34.2       0.231 
    ##  3  35.3       0.105 
    ##  4  35.8       0.180 
    ##  5  35.9       0.0612
    ##  6  35.9       0.171 
    ##  7  36.4       0.0587
    ##  8  36.4       0.113 
    ##  9  36.6      -0.0852
    ## 10  37.2       0.279 
    ## # … with 498 more rows
…
