…
``` r
athletes<-athletes%>%
  select(-c(grp_id,guide))%>%
  filter(!is.na(gender))

athletes
```

    ## # A tibble: 19,403 × 8
    ##    gender event                   medal  athlete      abb   country type    year
    ##    <chr>  <chr>                   <chr>  <chr>        <chr> <chr>   <chr>  <dbl>
    ##  1 Men    Double FITA Round Ampu… Gold   LARSEN Finn  DEN   <NA>    Arche…  1980
    ##  2 Men    Double FITA Round Ampu… Silver BRENNE Manf… FRG   <NA>    Arche…  1980
    ##  3 Men    Double FITA Round Ampu… Bronze SATO Masao   JPN   <NA>    Arche…  1980
    ##  4 Men    Double FITA Round Para… Gold   GEISS H.     FRG   <NA>    Arche…  1980
    ##  5 Men    Double FITA Round Para… Silver GRUN Guy     BEL   <NA>    Arche…  1980
    ##  6 Men    Double FITA Round Para… Bronze BUCHANAN J.  GBR   <NA>    Arche…  1980
    ##  7 Men    Double FITA Round Tetr… Gold   PARKER T.    CAN   <NA>    Arche…  1980
    ##  8 Men    Double FITA Round Tetr… Silver STEBEKK Odd… NOR   <NA>    Arche…  1980
    ##  9 Men    Double FITA Round Tetr… Bronze LAFONT G.    FRA   <NA>    Arche…  1980
    ## 10 Men    Double FITA Round Novi… Gold   CHAVEZ Alfr… MEX   <NA>    Arche…  1980
    ## # … with 19,393 more rows
…
